{
  "plugins": [

  ],
  "source": {
    "include": "src/component"
  },
  "opts": {
    "destination": "./docs/",
    "recurse": true,
    "encoding": "utf8",
    "template": "template",
    "readme": "./README.md",
    "tutorials": "./tutorials"
  }
}
