{
  "type": "dashboard",
  "title": "DASHBOARD",
  "dashboardItems": [
    {
      "id": "SfsWdhXPq",
      "title": "",
      "description": "",
      "type": "text",
      "html": "<p><strong>Primary KPIs</strong></p><p>This year&#x27;s primary OKR KPIs</p>",
      "height": "5",
      "width": "12"
    },
    {
      "id": "BZwEIUFZQ",
      "title": "Units Sold",
      "description": "The number of units sold in the month",
      "type": "number",
      "data": [
        {
          "name": "sales",
          "value": "1,532"
        },
        {
          "name": "revenue",
          "value": "£ 102,031"
        }
      ],
      "color": "#fcfcfc",
      "width": "3",
      "height": "5",
      "axisColor": "#000000",
      "colSize": "lg",
      "adjustColor": "#000000"
    },
    {
      "id": "L42upAMMj",
      "title": "Staff",
      "description": "Change in staff numbers in the last month",
      "type": "number",
      "data": [
        {
          "name": "Staff",
          "value": "+ 4"
        },
        {
          "name": "revenue",
          "value": "£ 102,031"
        }
      ],
      "color": "#fcfcfc",
      "width": "2",
      "height": "5",
      "axisColor": "#148a14",
      "colSize": "lg"
    },
    {
      "id": "RbfPWW-fA",
      "title": "Support Calls",
      "description": "The number of support calls in the month",
      "type": "number",
      "data": [
        {
          "name": "support",
          "value": 32
        },
        {
          "name": "revenue",
          "value": "£ 102,031"
        }
      ],
      "color": "#fcfcfc",
      "width": "2",
      "height": "5",
      "axisColor": "#4fac1c",
      "colSize": "lg"
    },
    {
      "id": "MGpcrOtgk",
      "title": "Priority One",
      "description": "Highest priority issues in the last month",
      "type": "number",
      "data": [
        {
          "name": "support",
          "value": 1
        },
        {
          "name": "revenue",
          "value": "£ 102,031"
        }
      ],
      "color": "#fcfcfc",
      "width": "2",
      "height": "5",
      "axisColor": "#ac1c1c",
      "colSize": "lg"
    },
    {
      "id": "gzHQmhIMY",
      "title": "Revenue",
      "description": "Revenue generated in the month",
      "type": "number",
      "data": [
        {
          "name": "support",
          "value": 32
        },
        {
          "name": "revenue",
          "value": "£ 102,031"
        }
      ],
      "color": "#fcfcfc",
      "width": "3",
      "height": "5",
      "axisColor": "#000000",
      "valueRow": 1,
      "colSize": "lg"
    },
    {
      "id": "-1_waNU-B",
      "title": "",
      "description": "",
      "type": "text",
      "width": "3",
      "html": "<p></p>",
      "height": "4"
    },
    {
      "id": "e-eb6n7Na",
      "title": "Incidents",
      "description": "Number of incidents per month over the last 12 months",
      "type": "sparkline",
      "data": [
        {
          "name": "Jan",
          "value": 42
        },
        {
          "name": "Feb",
          "value": 39
        },
        {
          "name": "Mar",
          "value": 31
        },
        {
          "name": "Apr",
          "value": 45
        },
        {
          "name": "Jun",
          "value": 41
        },
        {
          "name": "Jul",
          "value": 31
        },
        {
          "name": "Aug",
          "value": 27
        },
        {
          "name": "Sep",
          "value": 25
        },
        {
          "name": "Oct",
          "value": 22
        },
        {
          "name": "Nov",
          "value": 23
        },
        {
          "name": "Dec",
          "value": 21
        }
      ],
      "color": "#fcfcfc",
      "width": "3",
      "adjustColor": "#cfeaeb",
      "height": "3"
    },
    {
      "id": "ZoAShfnY4",
      "title": "Sales",
      "description": "Number of sales in units per month over the last year",
      "type": "sparkline",
      "data": [
        {
          "name": "Jan",
          "value": 212
        },
        {
          "name": "Feb",
          "value": 182
        },
        {
          "name": "Mar",
          "value": 174
        },
        {
          "name": "Apr",
          "value": 245
        },
        {
          "name": "Jun",
          "value": 255
        },
        {
          "name": "Jul",
          "value": 243
        },
        {
          "name": "Aug",
          "value": 278
        },
        {
          "name": "Sep",
          "value": 300
        },
        {
          "name": "Oct",
          "value": 312
        },
        {
          "name": "Nov",
          "value": 302
        },
        {
          "name": "Dec",
          "value": 322
        }
      ],
      "color": "#fcfcfc",
      "width": "3",
      "adjustColor": "#86e61e",
      "height": "3"
    },
    {
      "id": "CvNUoF4xW",
      "title": "",
      "description": "",
      "type": "text",
      "width": "3",
      "html": "<p></p>",
      "height": "4"
    },
    {
      "id": "OehH77yBZ",
      "title": "",
      "description": "",
      "type": "text",
      "width": "12",
      "html": "<p><strong>Secondary KPIs</strong></p><p>We&#x27;ve listed out the secondary KPIs a measures to show our performance in the month.</p>",
      "height": "3"
    },
    {
      "id": "tKtqxhRqb",
      "title": "",
      "description": "",
      "type": "text",
      "width": "2",
      "html": "<p></p>",
      "height": "4"
    },
    {
      "id": "2lC_y_mbC",
      "title": "Sales Performance",
      "description": "Total number of sales by destination country in units",
      "data": [
        {
          "name": "UK",
          "value": 1201
        },
        {
          "name": "USA",
          "value": 300
        },
        {
          "name": "Russia",
          "value": 150
        }
      ],
      "type": "bar",
      "series": "",
      "value": "",
      "color": "#fcfcfc",
      "axisColor": "#282828",
      "adjustColor": "#e2baba",
      "width": "4",
      "height": "4"
    },
    {
      "id": "VZQVyyx8J",
      "title": "Outsourcing",
      "description": "Number of man days outsourced to key locations in the last month",
      "type": "pie",
      "data": [
        {
          "name": "Anguilla",
          "value": 100
        },
        {
          "name": "St Kitts",
          "value": 40
        },
        {
          "name": "Antigua",
          "value": 75
        }
      ],
      "color": "#fcfcfc",
      "axisColor": "#df1f1f",
      "adjustColor": "#d19595",
      "width": "4",
      "height": "4"
    },
    {
      "id": "7QSPQ7hbb",
      "title": "Sales Detail",
      "description": "Detailed breakdown of sales by month in units",
      "type": "line",
      "data": [
        {
          "name": "Jan",
          "value": 212
        },
        {
          "name": "Feb",
          "value": 182
        },
        {
          "name": "Mar",
          "value": 174
        },
        {
          "name": "Apr",
          "value": 245
        },
        {
          "name": "Jun",
          "value": 255
        },
        {
          "name": "Jul",
          "value": 243
        },
        {
          "name": "Aug",
          "value": 278
        },
        {
          "name": "Sep",
          "value": 300
        },
        {
          "name": "Oct",
          "value": 312
        },
        {
          "name": "Nov",
          "value": 302
        },
        {
          "name": "Dec",
          "value": 322
        }
      ],
      "color": "#fcfffc",
      "width": "12",
      "height": "6"
    },
    {
      "id": "gLbRolovA",
      "title": "Operating Systems",
      "description": "Number of implementations per operating system",
      "data": [
        {
          "name": "Banana",
          "value": 100
        },
        {
          "name": "Grape",
          "value": 323
        },
        {
          "name": "Orange",
          "value": 22
        },
        {
          "name": "Raspberry",
          "value": 111
        }
      ],
      "type": "bar",
      "adjustColor": "#ccfff9",
      "height": "3",
      "width": "4",
      "color": "#fcfcfc"
    },
    {
      "id": "f1PYJfD1G",
      "title": "Demo",
      "description": "Just another pie chart that alleges to mean something important",
      "type": "pie",
      "data": [],
      "adjustColor": "#7d26d5",
      "width": "4",
      "color": "#fcfcfc"
    },
    {
      "id": "jNbl2N21V",
      "title": "Suspicious",
      "description": "Suspiciously the same as other data sets but with different colours",
      "type": "bar",
      "data": [],
      "adjustColor": "#927b7b",
      "color": "#fcfcfc",
      "width": "4"
    }
  ],
  "fillHeight": true
}
